{ "Common":[
  {"mark":"DeviceHead:DeviceID",        "addr":-1,   "type":"INT"},
  {"mark":"DeviceHead:Device",	        "addr":-2,	"type":"STRING"},
  {"mark":"DeviceHead:SerNo",	        "addr":-3,	"type":"STRING"},
  {"mark":"DeviceHead:Vendor",	        "addr":-4,	"type":"STRING"},
  {"mark":"DeviceHead:URI",	            "addr":-5,	"type":"STRING"},
  {"mark":"DeviceHead:LastSession",     "addr":-6,  "type":"CLOCK"},
  {"mark":"DeviceHead:LastAttempt",     "addr":-7,  "type":"CLOCK"}

]}