{
	"regFields":[
	{
		"regs":["Param:Gdog1","Param:Gdog2"],
		"group":"Параметры УР",
		"label":"Gdog",
		"dim":"м3/ч",
		"format":"%.3f",
		"description":"Максимальный расход, превышение генерирует ситуацию P1B"
	},
	{
		"regs":["Param:D1","Param:D2"],
		"group":"Параметры УР",
		"label":"D",
		"dim":"м3",
		"format":"%.1f",
		"description":"Внутренний диаметр трубопровода"
	},
	{
		"regs":["Options3:ApproxEnabled"],
		"group":"Параметры Условия",
		"label":"Аппроксимация",
		"dim":"",
		"format":"%s",
		"description":"Включение/выключение кусочно-линейной аппроксимации"
	},
	{
		"regs":["Options3:Scheme"],
		"group":"Параметры Условия",
		"label":"Схема",
		"dim":"",
		"format":"%s",
		"description":"Схема расчета тепловой мощности трубопроводов"
	},

	{
		"regs":["Options3:Pts"],
		"group":"Параметры Условия",
		"label":"ПТС",
		"dim":"",
		"format":"%s",
		"description":"Характеристика термосопротивления"
	},
	{
		"regs":["Options3:ModbusType"],
		"group":"Параметры Условия",
		"label":"Тип Modbus",
		"dim":"",
		"format":"%s",
		"description":"Тип Modbus"
	},
	{
		"regs":["Options3:UartSpeed"],
		"group":"Параметры Условия",
		"label":"Скорость обмена",
		"dim":"",
		"format":"%s",
		"description":"Скорость UART"
	},
	{
		"regs":["Options3:NetAddress"],
		"group":"Параметры Условия",
		"label":"Сетевой адрес",
		"dim":"",
		"format":"%s",
		"description":"Сетевой адрес MODBUS"
	},
	{
		"regs":["Options3:Print1p"],
		"group":"Параметры Условия",
		"label":"Шаблон1",
		"dim":"",
		"format":"%s",
		"description":"Шаблон вывода параметров 1 тепловвода на принтер"
	},
	{
		"regs":["Options3:Print2p"],
		"group":"Параметры Условия",
		"label":"Шаблон2",
		"dim":"",
		"format":"%s",
		"description":"Шаблон вывода параметров 2 тепловвода на принтер"
	},
	{
		"regs":["Options3:A2MinInUse"],
		"group":"Параметры Условия",
		"label":"A2MIN",
		"dim":"",
		"format":"%s",
		"description":"Включение/Выключение 2-х минутного архива"
	},
	{
		"regs":["Options3:Pts"],
		"group":"Параметры Условия",
		"label":"ПТС",
		"dim":"",
		"format":"%s",
		"description":"Характеристика термосопротивления"
	},
	{
		"regs":["GprsConfig:Apn"],
		"group":"GPRS Настройка",
		"label":"Apn",
		"dim":"20с",
		"format":"%s",
		"description":"Точка входа GPRS (нпрм internet.mts.ru), макс. 20 симовлов"
	},
	{
		"regs":["GprsConfig:User"],
		"group":"GPRS Настройка",
		"label":"User",
		"dim":"20с",
		"format":"%s",
		"description":"Имя пользователя, макс. 20 симовлов"
	},
	{
		"regs":["GprsConfig:Password"],
		"group":"GPRS Настройка",
		"label":"Password",
		"dim":"20с",
		"format":"%s",
		"description":"Пароль, макс. 20 симовлов"
	},	{
		"regs":["GprsConfig:IP"],
		"group":"GPRS Настройка",
		"label":"IP",
		"dim":"",
		"format":"%s",
		"description":"IP адрес приемника(нпрм 10.0.0.255)"
	},	{
		"regs":["GprsConfig:Port"],
		"group":"GPRS Настройка",
		"label":"Port",
		"dim":"",
		"format":"%d",
		"description":"Порт прослушивания в режиме сервера, лиюо порт приемника"
	},{
		"regs":["GprsConfig:Alarm"],
		"group":"GPRS Настройка",
		"label":"Timer",
		"dim":"0:мин:час:день",
		"format":"%s",
		"description":"Расписание срабатывания события GPRS или LoraWan  (нпрм 0:31:1:0 - событие генерируется каждый час в 31 мин 0 сек"
	},{
			"regs":["LoraCfg:auth"],
			"group":"LoraWAN параметры",
			"label":"AuthType",
			"dim":"",
			"format":"%s",
			"description":"Тип авторизации LoraWAN"
		},	{
			"regs":["LoraWanConfig:appEUI"],
			"group":"LoraWAN параметры",
			"label":"AppEUI",
			"dim":"",
			"format":"%s",
			"description":"OTAA: Application identifier, 16 symbols (0-F) max"
		},{
			"regs":["LoraWanConfig:devEUI"],
			"group":"LoraWAN параметры",
			"label":"DevEUI",
			"dim":"",
			"format":"%s",
			"description":"OTAA: End-device identifier, 16 symbols (0-F) max"
		},{
			"regs":["LoraWanConfig:appKey"],
			"group":"LoraWAN параметры",
			"label":"AppKey",
			"dim":"",
			"format":"%s",
			"description":"OTAA: Application key, 32 symbols (0-F) max"
		},{
			"regs":["LoraWanConfig:appSKey"],
			"group":"LoraWAN параметры",
			"label":"AppSKey",
			"dim":"",
			"format":"%s",
			"description":"ABP: Application key, 32 symbols (0-F) max"
		},{
			"regs":["LoraWanConfig:devAddr"],
			"group":"LoraWAN параметры",
			"label":"DevAddr",
			"dim":"",
			"format":"%s",
			"description":"ABP: End-device address, 4 symbols (0-F) max"
		},{
			"regs":["LoraWanConfig:nwkSKey"],
			"group":"LoraWAN параметры",
			"label":"NwkSKey",
			"dim":"",
			"format":"%s",
			"description":"ABP: Network layer encryption key, 16 symbols (0-F) max"
		},{
		"regs":["Param:L1","Param:L2"],
		"group":"Параметры УР",
		"label":"L",
		"dim":"м3",
		"format":"%.1f",
		"description":"Акустическая база измерительного участка"
	}
	,
	{
		"regs":["Param:Z1","Param:Z2"],
		"group":"Параметры УР",
		"label":"Z",
		"dim":"нс",
		"format":"%.1f",
		"description":"Смещение нуля акустической оси"
	}
	,{
		"regs":["Param:K1","Param:K2"],
		"group":"Параметры УР",
		"label":"Kг",
		"dim":"",
		"format":"%.1f",
		"description":"Гидродинамический коэффициент"
	}
	,{
		"regs":["Param:GMin1","Param:GMin2"],
		"group":"Параметры УР",
		"label":"Gмин",
		"dim":"м3/ч",
		"format":"%.1f",
		"description":"Минимальный объемный расход, после которого генерируется P1H"
	}
	,{
		"regs":["Param:Go1","Param:Go2"],
		"group":"Параметры УР",
		"label":"Gотс",
		"dim":"м3/ч",
		"format":"%.1f",
		"description":"Объемный расход, ниже которого измеренный расход принимается за 0"
	}
	,{
		"regs":["Param:Lk1","Param:Lk2"],
		"group":"Параметры УР",
		"label":"Lк",
		"dim":"м",
		"format":"%.1f",
		"description":"Длина кабеля от электронного блока до пьезодатчика"
	}
	,{
		"regs":["Param:p1t1"],
		"group":"Аппроксимация",
		"label":"p1t",
		"dim":"м3/ч",
		"format":"%.1f",
		"description":"Первая точка тестируемого расхода"
	}
	,{
		"regs":["Param:p1e1"],
		"group":"Аппроксимация",
		"label":"p1e",
		"dim":"м3/ч",
		"format":"%.1f",
		"description":"Первая точка эталонного расхода"
	}
	,{
		"regs":["Param:p2t1"],
		"group":"Аппроксимация",
		"label":"p2t",
		"dim":"м3/ч",
		"format":"%.1f",
		"description":"Вторая точка тестируемого расхода"
	}
	,{
		"regs":["Param:p2e1"],
		"group":"Аппроксимация",
		"label":"p2e",
		"dim":"м3/ч",
		"format":"%.1f",
		"description":"Вторая точка эталонного расхода"
	}
	,{
		"regs":["Param:p3t1"],
		"group":"Аппроксимация",
		"label":"p3t",
		"dim":"м3/ч",
		"format":"%.1f",
		"description":"Третья точка тестируемого расхода"
	}
	,{
		"regs":["Param:p3e1"],
		"group":"Аппроксимация",
		"label":"p3e",
		"dim":"м3/ч",
		"format":"%.1f",
		"description":"Третья точка эталонного расхода"
	}
	,{
		"regs":["Param:p4t1"],
		"group":"Аппроксимация",
		"label":"p4t",
		"dim":"м3/ч",
		"format":"%.1f",
		"description":"Четверта точка тестируемого расхода"
	}
	,{
		"regs":["Param:p4e1"],
		"group":"Аппроксимация",
		"label":"p4e",
		"dim":"м3/ч",
		"format":"%.1f",
		"description":"Четвертая точка эталонного расхода"
	}
    ,{
        "regs":["Param:Tdog1","Param:Tdog2"],
        "group":"Термопреобразователи",
        "label":"Tдог",
        "dim":"м3/ч",
        "format":"%.1f",
        "description":"Четвертая точка эталонного расхода"
    }
	,{
		"regs":["Param:Resolution3", "Param:Resolution4",  "Param:Resolution5",  "Param:Resolution6"],
		"group":"Параметры ВС",
		"label":"B",
		"dim":"м3/имп",
		"format":"%.1f",
		"description":"Цена импульса входного канала для внешнего водосчетчика"
	}
	,{
		"regs":["Param:GEdog3","Param:GEdog4","Param:GEdog5","Param:GEdog6"],
		"group":"Параметры ВС",
		"label":"Gдог",
		"dim":"м3",
		"format":"%.1f",
		"description":"Максимальный расход входного канала для внешнего водосчетчика"

	},{
		"regs":["Param:GEmin3", "Param:GEmin4","Param:GEmin5","Param:GEmin6"],
		"group":"Параметры ВС",
		"label":"Gмин",
		"dim":"м3",
		"format":"%.1f",
		"description":"Минимальный расход входного канала для внешнего водосчетчика"
	},{
		"regs":["Param:ZPeriod3","Param:ZPeriod4","Param:ZPeriod5","Param:ZPeriod6"],
		"group":"Параметры ВС",
		"label":"N",
		"dim":"30c",
		"format":"%.1f",
		"description":"Период накопления импульсов"

	},{
		"regs":["Measure:q1","Measure:q2", "Measure:q3", "Measure:q4", "Measure:q5", "Measure:q6"],
		"group":"Мгновенные значения",
		"label":"q",
		"dim":"м3/ч",
		"format":"%.3f",
		"description":"Мгновенный объемный расход"
	},
	{
		"regs":["Measure:tUps1", "Measure:tUps2"],
		"group":"Мгновенные значения",
		"label":"Tпо",
		"dim":"нс",
		"format":"%.1f",
		"description":"Время пролета по течению"
	},
	{
		"regs":["Measure:tDns1", "Measure:tDns2"],
		"group":"Мгновенные значения",
		"label":"Tпр",
		"dim":"нс",
		"format":"%.1f",
		"description":"Время пролета против течения"
	},
	{
		"regs":["Measure:T1", "Measure:T2", "Measure:T3", "Measure:T4"],
		"group":"Мгновенные значения",
		"label":"T",
		"dim":"oC",
		"format":"%.1f",
		"description":"Температура (макс. 151 оС)"
	}
	,
	{
		"regs":["Measure:P1", "Measure:P2", "Measure:P3", "Measure:P4"],
		"group":"Мгновенные значения",
		"label":"P",
		"dim":"МПа",
		"format":"%3.2f",
		"description":"Давление (макс. 1.6 МПа)"
	}
	,
	{
		"regs":["Measure:sysclock"],
		"group":"Системные значения",
		"label":"Clock",
		"dim":"",
		"format":"",
		"description":"Системные дата и время"
	}
	,{
		"regs":["Measure:sysstate"],
		"group":"Системные значения",
		"label":"НС",
		"dim":"",
		"format":"",
		"description":"Нештатные ситуации"
	},{
			"regs":["Measure:AccVolt"],
			"group":"Системные значения",
			"label":"V",
			"dim":"В",
			"format":"",
			"description":"Напряжение аккумуляторной батареи"
	},{
		"regs":["Measure:V1", "Measure:V2", "Measure:V3", "Measure:V4", "Measure:V5", "Measure:V6"],
		"group":"Накопленные значения",
		"label":"V",
		"dim":"м3",
		"format":"",
		"description":"Накопленный объем"
	}
	,{
		"regs":["Measure:M1", "Measure:M2", "Measure:M3","Measure:M4","Measure:M5","Measure:M6"],
		"group":"Накопленные значения",
		"label":"M",
		"dim":"т",
		"format":"",
		"description":"Накопленная масса"
	}
	,{
		"regs":["Measure:E1","Measure:E2"],
		"group":"Накопленные значения",
		"label":"E",
		"dim":"ГДж",
		"format":"",
		"description":"Накопленная энергия в гигаджоулях"
	}
	,{
		"regs":["Measure:Ek1", "Measure:Ek2"],
		"group":"Накопленные значения",
		"label":"E",
		"dim":"ГКал",
		"format":"",
		"description":"Накопленная энергия в гигакалориях"
	}
	,{
		"regs":["Measure:TrReal1", "Measure:TrReal2"],
		"group":"Накопленные значения",
		"label":"Tr",
		"dim":"ч",
		"format":"",
		"description":"Время безотказной работы в часах"
	}
]
}